Simple compound (metabolite) databases — CompDb • CompoundDb
…
## Get a tbl for the ms_compound table
cmp_tbl <- tbl(src_cmp, "ms_compound")

## Extract the id, name and inchi
cmp_tbl %>% select(compound_id, name, inchi) %>% collect()
#> # A tibble: 70 × 3
#>    compound_id name         inchi                                               
#>    <chr>       <chr>        <chr>                                               
#>  1 1           Mellein      InChI=1S/C10H10O3/c1-6-5-7-3-2-4-8(11)9(7)10(12)13-…
#>  2 2           Mellein      InChI=1S/C10H10O3/c1-6-5-7-3-2-4-8(11)9(7)10(12)13-…
#>  3 3           Mellein      InChI=1S/C10H10O3/c1-6-5-7-3-2-4-8(11)9(7)10(12)13-…
#>  4 4           Mellein      InChI=1S/C10H10O3/c1-6-5-7-3-2-4-8(11)9(7)10(12)13-…
#>  5 5           Mellein      InChI=1S/C10H10O3/c1-6-5-7-3-2-4-8(11)9(7)10(12)13-…
#>  6 6           AAL toxin TB InChI=1S/C25H47NO9/c1-4-17(3)24(32)21(35-23(31)13-1…
#>  7 7           AAL toxin TB InChI=1S/C25H47NO9/c1-4-17(3)24(32)21(35-23(31)13-1…
#>  8 8           AAL toxin TB InChI=1S/C25H47NO9/c1-4-17(3)24(32)21(35-23(31)13-1…
#>  9 9           AAL toxin TB InChI=1S/C25H47NO9/c1-4-17(3)24(32)21(35-23(31)13-1…
#> 10 10          AAL toxin TB InChI=1S/C25H47NO9/c1-4-17(3)24(32)21(35-23(31)13-1…
#> # ℹ 60 more rows
…
